<svg id="businessman" xmlns="http://www.w3.org/2000/svg" width="89.428" height="89.428" viewBox="0 0 89.428 89.428">
  <g id="Group_1294" data-name="Group 1294" transform="translate(52.166 23.848)">
    <g id="Group_1293" data-name="Group 1293">
      <path id="Path_628" data-name="Path 628" d="M284.471,128A4.471,4.471,0,0,0,280,132.471v1.49h2.981v-1.49a1.49,1.49,0,1,1,2.981,0v1.49h2.981v-1.49A4.471,4.471,0,0,0,284.471,128Z" transform="translate(-280 -128)" fill="#fff"/>
    </g>
  </g>
  <g id="Group_1296" data-name="Group 1296" transform="translate(67.071 23.848)">
    <g id="Group_1295" data-name="Group 1295">
      <path id="Path_629" data-name="Path 629" d="M364.471,128A4.471,4.471,0,0,0,360,132.471v1.49h2.981v-1.49a1.49,1.49,0,1,1,2.981,0v1.49h2.981v-1.49A4.471,4.471,0,0,0,364.471,128Z" transform="translate(-360 -128)" fill="#fff"/>
    </g>
  </g>
  <g id="Group_1298" data-name="Group 1298" transform="translate(58.128 34.281)">
    <g id="Group_1297" data-name="Group 1297">
      <path id="Path_630" data-name="Path 630" d="M320.943,184v1.49a2.981,2.981,0,0,1-5.962,0V184H312v1.49a5.962,5.962,0,0,0,11.924,0V184Z" transform="translate(-312 -184)" fill="#fff"/>
    </g>
  </g>
  <g id="Group_1300" data-name="Group 1300">
    <g id="Group_1299" data-name="Group 1299">
      <path id="Path_631" data-name="Path 631" d="M78.995,47.7H71.543v-1.64A17.746,17.746,0,0,0,81.721,32.79h1.745a4.471,4.471,0,1,0,0-8.943h-1.49V0H59.619A13.429,13.429,0,0,0,46.2,13.414V23.848h-1.49a4.471,4.471,0,0,0,0,8.943h1.745A17.746,17.746,0,0,0,56.638,46.056V47.7H49.186A10.445,10.445,0,0,0,38.752,58.128v1.49H29.809v-1.49a4.471,4.471,0,0,0-4.471-4.471H19.376A4.471,4.471,0,0,0,14.9,58.128v1.49H1.49A1.491,1.491,0,0,0,0,61.109V87.938a1.491,1.491,0,0,0,1.49,1.49H87.938a1.491,1.491,0,0,0,1.49-1.49V58.128A10.445,10.445,0,0,0,78.995,47.7Zm2.981-20.867h1.49a1.49,1.49,0,1,1,0,2.981h-1.49ZM46.2,29.809h-1.49a1.49,1.49,0,0,1,0-2.981H46.2ZM76.014,50.676l-6.123,8.165-.276-.276L66.2,55.147l4.471-4.471Zm-9.56,8.943-1.49,1.49H63.217l-1.49-1.49,2.364-2.364Zm-4.728-8.943h4.728L64.09,53.04ZM49.186,13.414A10.445,10.445,0,0,1,59.619,2.981H78.995v8.943H65.581v1.49a4.471,4.471,0,0,1-4.471,4.471H49.186Zm0,16.4V20.867H61.109a7.464,7.464,0,0,0,7.3-5.962H78.995v14.9A14.817,14.817,0,0,1,69.51,43.683a1.491,1.491,0,0,0-.948,1.388V47.7H59.619V45.07a1.491,1.491,0,0,0-.948-1.388A14.817,14.817,0,0,1,49.186,29.809Zm8.326,20.867,4.471,4.471-3.418,3.418-.276.276-6.123-8.165ZM17.886,58.128a1.491,1.491,0,0,1,1.49-1.49h5.962a1.491,1.491,0,0,1,1.49,1.49v1.49H17.886ZM41.733,86.447H2.981V76.014h14.9v4.471a1.491,1.491,0,0,0,1.49,1.49h5.962a1.491,1.491,0,0,0,1.49-1.49V76.014h14.9ZM20.867,78.995V76.014h2.981v2.981Zm20.867-5.962H2.981V62.6H41.733Zm2.981,13.414V61.109a1.491,1.491,0,0,0-1.49-1.49h-1.49v-1.49a7.438,7.438,0,0,1,6.759-7.382L56.936,62a1.491,1.491,0,0,0,1.087.6h.106a1.49,1.49,0,0,0,1.054-.437l.437-.437L61,63.111,58.149,80.239a1.49,1.49,0,0,0,.277,1.14l3.8,5.068ZM61.194,80.1,63.862,64.09h.456L66.986,80.1l-2.9,3.862Zm25.253,6.346H65.953l3.8-5.068a1.49,1.49,0,0,0,.277-1.14L67.177,63.111l1.385-1.385.437.437a1.49,1.49,0,0,0,1.054.437h.106a1.491,1.491,0,0,0,1.087-.6l8.444-11.258a7.438,7.438,0,0,1,6.759,7.382Z" fill="#fff"/>
    </g>
  </g>
</svg>
